sim/sa4x4_pytorch.vcd
$date
	Tue Jan  6 00:39:55 2026
$end
$version
	Icarus Verilog
$end
$timescale
	1ps
$end
$scope module tb_sa4x4_pytorch $end
$var wire 32 ! c33 [31:0] $end
$var wire 32 " c32 [31:0] $end
$var wire 32 # c31 [31:0] $end
$var wire 32 $ c30 [31:0] $end
$var wire 32 % c23 [31:0] $end
$var wire 32 & c22 [31:0] $end
$var wire 32 ' c21 [31:0] $end
$var wire 32 ( c20 [31:0] $end
$var wire 32 ) c13 [31:0] $end
$var wire 32 * c12 [31:0] $end
$var wire 32 + c11 [31:0] $end
$var wire 32 , c10 [31:0] $end
$var wire 32 - c03 [31:0] $end
$var wire 32 . c02 [31:0] $end
$var wire 32 / c01 [31:0] $end
$var wire 32 0 c00 [31:0] $end
$var parameter 32 1 ACC_W $end
$var parameter 32 2 N $end
$var parameter 32 3 T $end
$var reg 32 4 _ivl_0 [31:0] $end
$var reg 32 5 _ivl_1 [31:0] $end
$var reg 32 6 _ivl_2 [31:0] $end
$var reg 32 7 _ivl_7 [31:0] $end
$var reg 8 8 a0 [7:0] $end
$var reg 8 9 a1 [7:0] $end
$var reg 8 : a2 [7:0] $end
$var reg 8 ; a3 [7:0] $end
$var reg 8 < b0 [7:0] $end
$var reg 8 = b1 [7:0] $end
$var reg 8 > b2 [7:0] $end
$var reg 8 ? b3 [7:0] $end
$var reg 1 @ clk $end
$var reg 1 A en $end
$var reg 2048 B line [2047:0] $end
$var reg 1 C reset $end
$var integer 32 D fd [31:0] $end
$var integer 32 E i [31:0] $end
$var integer 32 F t [31:0] $end
$var integer 32 G tmp_a0 [31:0] $end
$var integer 32 H tmp_a1 [31:0] $end
$var integer 32 I tmp_a2 [31:0] $end
$var integer 32 J tmp_a3 [31:0] $end
$var integer 32 K tmp_b0 [31:0] $end
$var integer 32 L tmp_b1 [31:0] $end
$var integer 32 M tmp_b2 [31:0] $end
$var integer 32 N tmp_b3 [31:0] $end
$var integer 32 O x0 [31:0] $end
$var integer 32 P x1 [31:0] $end
$var integer 32 Q x2 [31:0] $end
$var integer 32 R x3 [31:0] $end
$scope module dut $end
$var wire 8 S a0 [7:0] $end
$var wire 8 T a1 [7:0] $end
$var wire 8 U a2 [7:0] $end
$var wire 8 V a3 [7:0] $end
$var wire 8 W b0 [7:0] $end
$var wire 8 X b1 [7:0] $end
$var wire 8 Y b2 [7:0] $end
$var wire 8 Z b3 [7:0] $end
$var wire 1 @ clk $end
$var wire 1 A en $end
$var wire 1 C reset $end
$var wire 32 [ c33 [31:0] $end
$var wire 32 \ c32 [31:0] $end
$var wire 32 ] c31 [31:0] $end
$var wire 32 ^ c30 [31:0] $end
$var wire 32 _ c23 [31:0] $end
$var wire 32 ` c22 [31:0] $end
$var wire 32 a c21 [31:0] $end
$var wire 32 b c20 [31:0] $end
$var wire 32 c c13 [31:0] $end
$var wire 32 d c12 [31:0] $end
$var wire 32 e c11 [31:0] $end
$var wire 32 f c10 [31:0] $end
$var wire 32 g c03 [31:0] $end
$var wire 32 h c02 [31:0] $end
$var wire 32 i c01 [31:0] $end
$var wire 32 j c00 [31:0] $end
$var parameter 32 k ACC_W $end
$scope module pe00 $end
$var wire 8 l a_in [7:0] $end
$var wire 32 m acc_out [31:0] $end
$var wire 8 n b_in [7:0] $end
$var wire 1 @ clk $end
$var wire 1 A en $end
$var wire 1 C reset $end
$var wire 16 o product [15:0] $end
$var parameter 32 p ACC_W $end
$var reg 8 q a_out [7:0] $end
$var reg 32 r acc_reg [31:0] $end
$var reg 8 s b_out [7:0] $end
$upscope $end
$scope module pe01 $end
$var wire 8 t a_in [7:0] $end
$var wire 32 u acc_out [31:0] $end
$var wire 8 v b_in [7:0] $end
$var wire 1 @ clk $end
$var wire 1 A en $end
$var wire 1 C reset $end
$var wire 16 w product [15:0] $end
$var parameter 32 x ACC_W $end
$var reg 8 y a_out [7:0] $end
$var reg 32 z acc_reg [31:0] $end
$var reg 8 { b_out [7:0] $end
$upscope $end
$scope module pe02 $end
$var wire 8 | a_in [7:0] $end
$var wire 32 } acc_out [31:0] $end
$var wire 8 ~ b_in [7:0] $end
$var wire 1 @ clk $end
$var wire 1 A en $end
$var wire 1 C reset $end
$var wire 16 !" product [15:0] $end
$var parameter 32 "" ACC_W $end
$var reg 8 #" a_out [7:0] $end
$var reg 32 $" acc_reg [31:0] $end
$var reg 8 %" b_out [7:0] $end
$upscope $end
$scope module pe03 $end
$var wire 8 &" a_in [7:0] $end
$var wire 32 '" acc_out [31:0] $end
$var wire 8 (" b_in [7:0] $end
$var wire 1 @ clk $end
$var wire 1 A en $end
$var wire 1 C reset $end
$var wire 16 )" product [15:0] $end
$var parameter 32 *" ACC_W $end
$var reg 8 +" a_out [7:0] $end
$var reg 32 ," acc_reg [31:0] $end
$var reg 8 -" b_out [7:0] $end
$upscope $end
$scope module pe10 $end
$var wire 8 ." a_in [7:0] $end
$var wire 32 /" acc_out [31:0] $end
$var wire 8 0" b_in [7:0] $end
$var wire 1 @ clk $end
$var wire 1 A en $end
$var wire 1 C reset $end
$var wire 16 1" product [15:0] $end
$var parameter 32 2" ACC_W $end
$var reg 8 3" a_out [7:0] $end
$var reg 32 4" acc_reg [31:0] $end
$var reg 8 5" b_out [7:0] $end
$upscope $end
$scope module pe11 $end
$var wire 8 6" a_in [7:0] $end
$var wire 32 7" acc_out [31:0] $end
$var wire 8 8" b_in [7:0] $end
$var wire 1 @ clk $end
$var wire 1 A en $end
$var wire 1 C reset $end
$var wire 16 9" product [15:0] $end
$var parameter 32 :" ACC_W $end
$var reg 8 ;" a_out [7:0] $end
$var reg 32 <" acc_reg [31:0] $end
$var reg 8 =" b_out [7:0] $end
$upscope $end
$scope module pe12 $end
$var wire 8 >" a_in [7:0] $end
$var wire 32 ?" acc_out [31:0] $end
$var wire 8 @" b_in [7:0] $end
$var wire 1 @ clk $end
$var wire 1 A en $end
$var wire 1 C reset $end
$var wire 16 A" product [15:0] $end
$var parameter 32 B" ACC_W $end
$var reg 8 C" a_out [7:0] $end
$var reg 32 D" acc_reg [31:0] $end
$var reg 8 E" b_out [7:0] $end
$upscope $end
$scope module pe13 $end
$var wire 8 F" a_in [7:0] $end
$var wire 32 G" acc_out [31:0] $end
$var wire 8 H" b_in [7:0] $end
$var wire 1 @ clk $end
$var wire 1 A en $end
$var wire 1 C reset $end
$var wire 16 I" product [15:0] $end
$var parameter 32 J" ACC_W $end
$var reg 8 K" a_out [7:0] $end
$var reg 32 L" acc_reg [31:0] $end
$var reg 8 M" b_out [7:0] $end
$upscope $end
$scope module pe20 $end
$var wire 8 N" a_in [7:0] $end
$var wire 32 O" acc_out [31:0] $end
$var wire 8 P" b_in [7:0] $end
$var wire 1 @ clk $end
$var wire 1 A en $end
$var wire 1 C reset $end
$var wire 16 Q" product [15:0] $end
$var parameter 32 R" ACC_W $end
$var reg 8 S" a_out [7:0] $end
$var reg 32 T" acc_reg [31:0] $end
$var reg 8 U" b_out [7:0] $end
$upscope $end
$scope module pe21 $end
$var wire 8 V" a_in [7:0] $end
$var wire 32 W" acc_out [31:0] $end
$var wire 8 X" b_in [7:0] $end
$var wire 1 @ clk $end
$var wire 1 A en $end
$var wire 1 C reset $end
$var wire 16 Y" product [15:0] $end
$var parameter 32 Z" ACC_W $end
$var reg 8 [" a_out [7:0] $end
$var reg 32 \" acc_reg [31:0] $end
$var reg 8 ]" b_out [7:0] $end
$upscope $end
$scope module pe22 $end
$var wire 8 ^" a_in [7:0] $end
$var wire 32 _" acc_out [31:0] $end
$var wire 8 `" b_in [7:0] $end
$var wire 1 @ clk $end
$var wire 1 A en $end
$var wire 1 C reset $end
$var wire 16 a" product [15:0] $end
$var parameter 32 b" ACC_W $end
$var reg 8 c" a_out [7:0] $end
$var reg 32 d" acc_reg [31:0] $end
$var reg 8 e" b_out [7:0] $end
$upscope $end
$scope module pe23 $end
$var wire 8 f" a_in [7:0] $end
$var wire 32 g" acc_out [31:0] $end
$var wire 8 h" b_in [7:0] $end
$var wire 1 @ clk $end
$var wire 1 A en $end
$var wire 1 C reset $end
$var wire 16 i" product [15:0] $end
$var parameter 32 j" ACC_W $end
$var reg 8 k" a_out [7:0] $end
$var reg 32 l" acc_reg [31:0] $end
$var reg 8 m" b_out [7:0] $end
$upscope $end
$scope module pe30 $end
$var wire 8 n" a_in [7:0] $end
$var wire 32 o" acc_out [31:0] $end
$var wire 8 p" b_in [7:0] $end
$var wire 1 @ clk $end
$var wire 1 A en $end
$var wire 1 C reset $end
$var wire 16 q" product [15:0] $end
$var parameter 32 r" ACC_W $end
$var reg 8 s" a_out [7:0] $end
$var reg 32 t" acc_reg [31:0] $end
$var reg 8 u" b_out [7:0] $end
$upscope $end
$scope module pe31 $end
$var wire 8 v" a_in [7:0] $end
$var wire 32 w" acc_out [31:0] $end
$var wire 8 x" b_in [7:0] $end
$var wire 1 @ clk $end
$var wire 1 A en $end
$var wire 1 C reset $end
$var wire 16 y" product [15:0] $end
$var parameter 32 z" ACC_W $end
$var reg 8 {" a_out [7:0] $end
$var reg 32 |" acc_reg [31:0] $end
$var reg 8 }" b_out [7:0] $end
$upscope $end
$scope module pe32 $end
$var wire 8 ~" a_in [7:0] $end
$var wire 32 !# acc_out [31:0] $end
$var wire 8 "# b_in [7:0] $end
$var wire 1 @ clk $end
$var wire 1 A en $end
$var wire 1 C reset $end
$var wire 16 ## product [15:0] $end
$var parameter 32 $# ACC_W $end
$var reg 8 %# a_out [7:0] $end
$var reg 32 &# acc_reg [31:0] $end
$var reg 8 '# b_out [7:0] $end
$upscope $end
$scope module pe33 $end
$var wire 8 (# a_in [7:0] $end
$var wire 32 )# acc_out [31:0] $end
$var wire 8 *# b_in [7:0] $end
$var wire 1 @ clk $end
$var wire 1 A en $end
$var wire 1 C reset $end
$var wire 16 +# product [15:0] $end
$var parameter 32 ,# ACC_W $end
$var reg 8 -# a_out [7:0] $end
$var reg 32 .# acc_reg [31:0] $end
$var reg 8 /# b_out [7:0] $end
$upscope $end
$upscope $end
$scope task check_outputs $end
$upscope $end
$scope task seek_marker $end
$upscope $end
$upscope $end
$enddefinitions $end
$comment Show the parameter values. $end
$dumpall
b100000 ,#
b100000 $#
b100000 z"
b100000 r"
b100000 j"
b100000 b"
b100000 Z"
b100000 R"
b100000 J"
b100000 B"
b100000 :"
b100000 2"
b100000 *"
b100000 ""
b100000 x
b100000 p
b100000 k
b1100 3
b100 2
b100000 1
$end
#0
$dumpvars
bx /#
bx .#
bx -#
bx +#
bx *#
bx )#
bx (#
bx '#
bx &#
bx %#
bx ##
bx "#
bx !#
bx ~"
bx }"
bx |"
bx {"
bx y"
bx x"
bx w"
bx v"
bx u"
bx t"
bx s"
bx q"
bx p"
bx o"
b0 n"
bx m"
bx l"
bx k"
bx i"
bx h"
bx g"
bx f"
bx e"
bx d"
bx c"
bx a"
bx `"
bx _"
bx ^"
bx ]"
bx \"
bx ["
bx Y"
bx X"
bx W"
bx V"
bx U"
bx T"
bx S"
bx Q"
bx P"
bx O"
b0 N"
bx M"
bx L"
bx K"
bx I"
bx H"
bx G"
bx F"
bx E"
bx D"
bx C"
bx A"
bx @"
bx ?"
bx >"
bx ="
bx <"
bx ;"
bx 9"
bx 8"
bx 7"
bx 6"
bx 5"
bx 4"
bx 3"
bx 1"
bx 0"
bx /"
b0 ."
bx -"
bx ,"
bx +"
bx )"
b0 ("
bx '"
bx &"
bx %"
bx $"
bx #"
bx !"
b0 ~
bx }
bx |
bx {
bx z
bx y
bx w
b0 v
bx u
bx t
bx s
bx r
bx q
b0 o
b0 n
bx m
b0 l
bx j
bx i
bx h
bx g
bx f
bx e
bx d
bx c
bx b
bx a
bx `
bx _
bx ^
bx ]
bx \
bx [
b0 Z
b0 Y
b0 X
b0 W
b0 V
b0 U
b0 T
b0 S
b10100 R
b11111111111111111111111111111111 Q
b11111111111111111111111111111111 P
b10 O
bx N
bx M
bx L
bx K
bx J
bx I
bx H
bx G
bx F
b100 E
b10000000000000000000000000000011 D
1C
b100100101001110010010100100010101000011010101000011101000001010 B
0A
0@
b0 ?
b0 >
b0 =
b0 <
b0 ;
b0 :
b0 9
b0 8
bx 7
b1011 6
b1001 5
b1011 4
bx 0
bx /
bx .
bx -
bx ,
bx +
bx *
bx )
bx (
bx '
bx &
bx %
bx $
bx #
bx "
bx !
$end
#5000
b0 1"
b0 0"
b0 s
b0 w
b0 t
b0 q
b0 0
b0 j
b0 m
b0 r
b0 9"
b0 8"
b0 {
b0 !"
b0 |
b0 y
b0 /
b0 i
b0 u
b0 z
b0 A"
b0 @"
b0 %"
b0 )"
b0 &"
b0 #"
b0 .
b0 h
b0 }
b0 $"
b0 I"
b0 H"
b0 -"
b0 +"
b0 -
b0 g
b0 '"
b0 ,"
b0 Q"
b0 P"
b0 5"
b0 6"
b0 3"
b0 ,
b0 f
b0 /"
b0 4"
b0 Y"
b0 X"
b0 ="
b0 >"
b0 ;"
b0 +
b0 e
b0 7"
b0 <"
b0 a"
b0 `"
b0 E"
b0 F"
b0 C"
b0 *
b0 d
b0 ?"
b0 D"
b0 i"
b0 h"
b0 M"
b0 K"
b0 )
b0 c
b0 G"
b0 L"
b0 q"
b0 p"
b0 U"
b0 V"
b0 S"
b0 (
b0 b
b0 O"
b0 T"
b0 y"
b0 x"
b0 ]"
b0 ^"
b0 ["
b0 '
b0 a
b0 W"
b0 \"
b0 ##
b0 "#
b0 e"
b0 f"
b0 c"
b0 &
b0 `
b0 _"
b0 d"
b0 +#
b0 *#
b0 m"
b0 k"
b0 %
b0 _
b0 g"
b0 l"
b0 u"
b0 v"
b0 s"
b0 $
b0 ^
b0 o"
b0 t"
b0 }"
b0 ~"
b0 {"
b0 #
b0 ]
b0 w"
b0 |"
b0 '#
b0 (#
b0 %#
b0 "
b0 \
b0 !#
b0 &#
b0 /#
b0 -#
b0 !
b0 [
b0 )#
b0 .#
1@
#10000
0@
#15000
1@
#20000
0@
#25000
0C
1@
#30000
0@
#35000
b100 l
b100 8
b100 S
b0 N
b0 M
b0 L
b0 K
b0 J
b0 I
b0 H
b100 G
b10000 7
b110100001000000011000000100000001100000010000000110000001000000011000000100000001100000010000000110000001000000011000000001010 B
b0 F
1A
1@
#40000
0@
#45000
b100 t
b100 q
1@
#46000
b10000 w
b100 v
b100 =
b100 X
b1111111111110010 o
b11111110 n
b11111110 <
b11111110 W
b11111011 ."
b11111011 9
b11111011 T
b111 l
b111 8
b111 S
b100 L
b11111111111111111111111111111110 K
b11111111111111111111111111111011 H
b111 G
b10010 7
b1101110010000000101101001101010010000000110000001000000011000000100000001011010011001000100000001101000010000000110000001000000011000000001010 B
b1 F
#50000
0@
#55000
b1111111111101100 9"
b11111011 6"
b11111011 3"
b10000 /
b10000 i
b10000 u
b10000 z
b100 8"
b100 {
b100 |
b100 y
b11111111111111111111111111110010 0
b11111111111111111111111111110010 j
b11111111111111111111111111110010 m
b11111111111111111111111111110010 r
b1010 1"
b11111110 0"
b11111110 s
b11100 w
b111 t
b111 q
1@
#56000
b1000 !"
b10 ~
b10 >
b10 Y
b1111111111111001 w
b11111111 v
b11111111 =
b11111111 X
b0 n
b0 <
b0 W
b1 N"
b1 :
b1 U
b1111111111111010 1"
b11 ."
b11 9
b11 T
b0 o
b11111101 l
b11111101 8
b11111101 S
b10 M
b11111111111111111111111111111111 L
b0 K
b1 I
b11 H
b11111111111111111111111111111101 G
b1011010011001100100000001100110010000000110001001000000011000000100000001100000010000000101101001100010010000000110010001000000011000000001010 B
b10 F
#60000
0@
#65000
b0 1"
b0 0"
b0 s
b11 w
b11111101 t
b11111101 q
b1001 /
b1001 i
b1001 u
b1001 z
b11111111 8"
b11111111 {
b1110 !"
b111 |
b111 y
b1000 .
b1000 h
b1000 }
b1000 $"
b1111111111110110 A"
b10 @"
b10 %"
b100 &"
b100 #"
b11111111111111111111111111111010 ,
b11111111111111111111111111111010 f
b11111111111111111111111111111010 /"
b11111111111111111111111111111010 4"
b1111111111111110 Q"
b11111110 P"
b11111110 5"
b1111111111111101 9"
b11 6"
b11 3"
b11111111111111111111111111101100 +
b11111111111111111111111111101100 e
b11111111111111111111111111101100 7"
b11111111111111111111111111101100 <"
b100 Y"
b100 X"
b100 ="
b11111011 >"
b11111011 ;"
b1 V"
b1 S"
1@
#66000
b1111111111100100 )"
b11111001 ("
b11111001 ?
b11111001 Z
b1111111111111001 !"
b11111111 ~
b11111111 >
b11111111 Y
b10101 w
b11111001 v
b11111001 =
b11111001 X
b1111111111011000 o
b101 n
b101 <
b101 W
b11111100 n"
b11111100 ;
b11111100 V
b1010 Q"
b11111011 N"
b11111011 :
b11111011 U
b11111011 ."
b11111011 9
b11111011 T
b11111000 l
b11111000 8
b11111000 S
b11111111111111111111111111111001 N
b11111111111111111111111111111111 M
b11111111111111111111111111111001 L
b101 K
b11111111111111111111111111111100 J
b11111111111111111111111111111011 I
b11111111111111111111111111111011 H
b11111111111111111111111111111000 G
b10111 7
b10110100111000001000000010110100110101001000000010110100110101001000000010110100110100001000000011010100100000001011010011011100100000001011010011000100100000001011010011011100001010 B
b11 F
#70000
0@
#75000
b1111111111110000 y"
b11111100 v"
b11111100 s"
b100 '
b100 a
b100 W"
b100 \"
b100 x"
b100 ]"
b10 a"
b1 ^"
b1 ["
b1010 (
b1010 b
b1010 O"
b1010 T"
b1000 q"
b11111110 p"
b11111110 U"
b11111011 V"
b11111011 S"
b11111111111111111111111111110110 *
b11111111111111111111111111110110 d
b11111111111111111111111111110110 ?"
b11111111111111111111111111110110 D"
b10 `"
b10 E"
b100011 I"
b11111011 F"
b11111011 C"
b11111111111111111111111111101001 +
b11111111111111111111111111101001 e
b11111111111111111111111111101001 7"
b11111111111111111111111111101001 <"
b101 Y"
b11111111 X"
b11111111 ="
b11 >"
b11 ;"
b0 Q"
b0 P"
b0 5"
b11111011 6"
b11111011 3"
b11111111111111111111111111100100 -
b11111111111111111111111111100100 g
b11111111111111111111111111100100 '"
b11111111111111111111111111100100 ,"
b11111001 H"
b11111001 -"
b100 +"
b1 .
b1 h
b1 }
b1 $"
b1111111111111101 A"
b11111111 @"
b11111111 %"
b1111111111001111 )"
b111 &"
b111 #"
b11110 /
b11110 i
b11110 u
b11110 z
b100011 9"
b11111001 8"
b11111001 {
b11 !"
b11111101 |
b11111101 y
b11111111111111111111111111001010 0
b11111111111111111111111111001010 j
b11111111111111111111111111001010 m
b11111111111111111111111111001010 r
b1111111111100111 1"
b101 0"
b101 s
b111000 w
b11111000 t
b11111000 q
1@
#76000
b101010 )"
b110 ("
b110 ?
b110 Z
b1001 !"
b11111101 ~
b11111101 >
b11111101 Y
b0 w
b0 v
b0 =
b0 X
b0 n
b0 <
b0 W
b10 q"
b11111111 n"
b11111111 ;
b11111111 V
b11111101 N"
b11111101 :
b11111101 U
b1111111111111011 1"
b11111111 ."
b11111111 9
b11111111 T
b0 o
b0 l
b0 8
b0 S
b110 N
b11111111111111111111111111111101 M
b0 L
b0 K
b11111111111111111111111111111111 J
b11111111111111111111111111111101 I
b11111111111111111111111111111111 H
b0 G
b10100 7
b11000000100000001011010011000100100000001011010011001100100000001011010011000100100000001100000010000000110000001000000010110100110011001000000011011000001010 B
b100 F
#80000
0@
#85000
b0 1"
b0 0"
b0 s
b0 t
b0 q
b0 8"
b0 {
b11000 !"
b11111000 |
b11111000 y
b1010 .
b1010 h
b1010 }
b1010 $"
b11111101 @"
b11111101 %"
b1111111111101110 )"
b11111101 &"
b11111101 #"
b1110 -
b1110 g
b1110 '"
b1110 ,"
b110 H"
b110 -"
b111 +"
b11111111111111111111111111110101 ,
b11111111111111111111111111110101 f
b11111111111111111111111111110101 /"
b11111111111111111111111111110101 4"
b1111111111110001 Q"
b101 P"
b101 5"
b0 9"
b11111111 6"
b11111111 3"
b1100 +
b1100 e
b1100 7"
b1100 <"
b11111001 X"
b11111001 ="
b1111 A"
b11111011 >"
b11111011 ;"
b11111111111111111111111111110011 *
b11111111111111111111111111110011 d
b11111111111111111111111111110011 ?"
b11111111111111111111111111110011 D"
b11111111 `"
b11111111 E"
b10010 I"
b11 F"
b11 C"
b100011 )
b100011 c
b100011 G"
b100011 L"
b1111111111111001 i"
b11111001 h"
b11111001 M"
b11111011 K"
b0 q"
b0 p"
b0 U"
b10101 Y"
b11111101 V"
b11111101 S"
b1001 '
b1001 a
b1001 W"
b1001 \"
b11111111 x"
b11111111 ]"
b101 a"
b11111011 ^"
b11111011 ["
b10 &
b10 `
b10 _"
b10 d"
b1111111111111000 ##
b10 "#
b10 e"
b1 f"
b1 c"
b10 $
b10 ^
b10 o"
b10 t"
b11111110 u"
b1 y"
b11111111 v"
b11111111 s"
b11111111111111111111111111110000 #
b11111111111111111111111111110000 ]
b11111111111111111111111111110000 w"
b11111111111111111111111111110000 |"
b100 }"
b11111100 ~"
b11111100 {"
1@
#86000
b1111111111111101 )"
b1 ("
b1 ?
b1 Z
b1111111111111000 !"
b1 ~
b1 >
b1 Y
b11111110 n"
b11111110 ;
b11111110 V
b1111111111100010 Q"
b11111010 N"
b11111010 :
b11111010 U
b0 ."
b0 9
b0 T
b1 N
b1 M
b11111111111111111111111111111110 J
b11111111111111111111111111111010 I
b0 H
b10010 7
b1100000010000000110000001000000010110100110110001000000010110100110010001000000011000000100000001100000010000000110001001000000011000100001010 B
b101 F
#90000
0@
#95000
b11111111111111111111111111111000 "
b11111111111111111111111111111000 \
b11111111111111111111111111111000 !#
b11111111111111111111111111111000 &#
b10 '#
b11100 +#
b11111100 (#
b11111100 %#
b11111111111111111111111111110001 #
b11111111111111111111111111110001 ]
b11111111111111111111111111110001 w"
b11111111111111111111111111110001 |"
b11111111 }"
b11111111 ~"
b11111111 {"
b0 u"
b11111110 v"
b11111110 s"
b11111111111111111111111111111001 %
b11111111111111111111111111111001 _
b11111111111111111111111111111001 g"
b11111111111111111111111111111001 l"
b11111001 *#
b11111001 m"
b1 k"
b111 &
b111 `
b111 _"
b111 d"
b1 ##
b11111111 "#
b11111111 e"
b11111011 f"
b11111011 c"
b11110 '
b11110 a
b11110 W"
b11110 \"
b1110 y"
b11111001 x"
b11111001 ]"
b11111101 ^"
b11111101 ["
b11111111111111111111111111101100 (
b11111111111111111111111111101100 b
b11111111111111111111111111101100 O"
b11111111111111111111111111101100 T"
b1111111111110110 q"
b101 p"
b101 U"
b11111010 V"
b11111010 S"
b110101 )
b110101 c
b110101 G"
b110101 L"
b1111111111100010 i"
b110 h"
b110 M"
b11 K"
b10 *
b10 d
b10 ?"
b10 D"
b1001 a"
b11111101 `"
b11111101 E"
b11111011 F"
b11111011 C"
b0 Y"
b0 X"
b0 ="
b11111111 >"
b11111111 ;"
b0 Q"
b0 P"
b0 5"
b0 6"
b0 3"
b1011 -
b1011 g
b1011 '"
b1011 ,"
b1111111111111011 I"
b1 H"
b1 -"
b11111101 +"
b10 .
b10 h
b10 }
b10 $"
b1111111111111111 A"
b1 @"
b1 %"
b1111111111111000 )"
b11111000 &"
b11111000 #"
b0 !"
b0 |
b0 y
1@
#96000
b100000 )"
b11111100 ("
b11111100 ?
b11111100 Z
b0 ~
b0 >
b0 Y
b0 q"
b0 n"
b0 ;
b0 V
b0 N"
b0 :
b0 U
b11111111111111111111111111111100 N
b0 M
b0 J
b0 I
b10001 7
b11000000100000001100000010000000110000001000000011000000100000001100000010000000110000001000000011000000100000001011010011010000001010 B
b110 F
#100000
0@
#105000
b0 @"
b0 %"
b0 )"
b0 &"
b0 #"
b101011 -
b101011 g
b101011 '"
b101011 ,"
b11111100 H"
b11111100 -"
b11111000 +"
b0 A"
b0 >"
b0 ;"
b1 *
b1 d
b1 ?"
b1 D"
b1 `"
b1 E"
b100 I"
b11111111 F"
b11111111 C"
b110000 )
b110000 c
b110000 G"
b110000 L"
b1 h"
b1 M"
b11111011 K"
b0 p"
b0 U"
b0 V"
b0 S"
b0 x"
b0 ]"
b1111111111111010 a"
b11111010 ^"
b11111010 ["
b10000 &
b10000 `
b10000 _"
b10000 d"
b11111101 "#
b11111101 e"
b1111111111111101 i"
b11111101 f"
b11111101 c"
b11111111111111111111111111011011 %
b11111111111111111111111111011011 _
b11111111111111111111111111011011 g"
b11111111111111111111111111011011 l"
b110 *#
b110 m"
b11111011 k"
b101 u"
b0 y"
b0 v"
b0 s"
b11111111111111111111111111111111 #
b11111111111111111111111111111111 ]
b11111111111111111111111111111111 w"
b11111111111111111111111111111111 |"
b11111001 }"
b110 ##
b11111110 ~"
b11111110 {"
b11111111111111111111111111111001 "
b11111111111111111111111111111001 \
b11111111111111111111111111111001 !#
b11111111111111111111111111111001 &#
b11111111 '#
b1111111111111010 +#
b11111111 (#
b11111111 %#
b11100 !
b11100 [
b11100 )#
b11100 .#
b11111001 /#
b11111100 -#
1@
#106000
b0 ("
b0 ?
b0 Z
b0 N
b10000 7
b110000001000000011000000100000001100000010000000110000001000000011000000100000001100000010000000110000001000000011000000001010 B
b111 F
#110000
0@
#115000
b10110 !
b10110 [
b10110 )#
b10110 .#
b110 /#
b11111111 -#
b11111111111111111111111111111111 "
b11111111111111111111111111111111 \
b11111111111111111111111111111111 !#
b11111111111111111111111111111111 &#
b11111101 '#
b11111110 (#
b11111110 %#
b0 }"
b0 ~"
b0 {"
b0 u"
b11111111111111111111111111011000 %
b11111111111111111111111111011000 _
b11111111111111111111111111011000 g"
b11111111111111111111111111011000 l"
b1111111111111110 +#
b1 *#
b1 m"
b11111101 k"
b1010 &
b1010 `
b1010 _"
b1010 d"
b0 ##
b1 "#
b1 e"
b11111010 f"
b11111010 c"
b0 ^"
b0 ["
b110100 )
b110100 c
b110100 G"
b110100 L"
b11000 i"
b11111100 h"
b11111100 M"
b11111111 K"
b0 a"
b0 `"
b0 E"
b0 F"
b0 C"
b0 I"
b0 H"
b0 -"
b0 +"
1@
#116000
b1000 F
#120000
0@
#125000
b0 h"
b0 M"
b0 K"
b0 "#
b0 e"
b0 i"
b0 f"
b0 c"
b11111111111111111111111111110000 %
b11111111111111111111111111110000 _
b11111111111111111111111111110000 g"
b11111111111111111111111111110000 l"
b11111100 *#
b11111100 m"
b11111010 k"
b1 '#
b0 +#
b0 (#
b0 %#
b10100 !
b10100 [
b10100 )#
b10100 .#
b1 /#
b11111110 -#
1@
#126000
b1001 F
#130000
0@
#135000
b11111100 /#
b0 -#
b0 '#
b0 *#
b0 m"
b0 k"
1@
#136000
b1010 F
#140000
0@
#145000
b0 /#
1@
#146000
b1011 F
#150000
0@
#155000
1@
#156000
b1100 F
#160000
0@
#165000
1@
#170000
0@
#175000
1@
#180000
0@
#185000
0A
1@
