sim/top_memh.vcd
$date
	Sun Mar 22 02:24:20 2026
$end
$version
	Icarus Verilog
$end
$timescale
	1ps
$end
$scope module tb_top_memh $end
$var wire 1 ! in_b_ready $end
$var wire 1 " in_a_ready $end
$var wire 1 # done $end
$var wire 32 $ c33 [31:0] $end
$var wire 32 % c32 [31:0] $end
$var wire 32 & c31 [31:0] $end
$var wire 32 ' c30 [31:0] $end
$var wire 32 ( c23 [31:0] $end
$var wire 32 ) c22 [31:0] $end
$var wire 32 * c21 [31:0] $end
$var wire 32 + c20 [31:0] $end
$var wire 32 , c13 [31:0] $end
$var wire 32 - c12 [31:0] $end
$var wire 32 . c11 [31:0] $end
$var wire 32 / c10 [31:0] $end
$var wire 32 0 c03 [31:0] $end
$var wire 32 1 c02 [31:0] $end
$var wire 32 2 c01 [31:0] $end
$var wire 32 3 c00 [31:0] $end
$var reg 1 4 clk $end
$var reg 32 5 in_a_data [31:0] $end
$var reg 1 6 in_a_valid $end
$var reg 32 7 in_b_data [31:0] $end
$var reg 1 8 in_b_valid $end
$var reg 1 9 reset $end
$var reg 1 : start $end
$var integer 32 ; i [31:0] $end
$scope function s32 $end
$upscope $end
$scope module dut $end
$var wire 1 4 clk $end
$var wire 1 # done $end
$var wire 32 < in_a_data [31:0] $end
$var wire 1 6 in_a_valid $end
$var wire 32 = in_b_data [31:0] $end
$var wire 1 8 in_b_valid $end
$var wire 1 9 reset $end
$var wire 1 : start $end
$var wire 32 > total_feed_cycles [31:0] $end
$var wire 32 ? stall_feed_cycles [31:0] $end
$var wire 1 @ pop_b $end
$var wire 1 A pop_a $end
$var wire 1 ! in_b_ready $end
$var wire 1 " in_a_ready $end
$var wire 32 B fifo_b_rd [31:0] $end
$var wire 1 C fifo_b_full $end
$var wire 1 D fifo_b_empty $end
$var wire 32 E fifo_a_rd [31:0] $end
$var wire 1 F fifo_a_full $end
$var wire 1 G fifo_a_empty $end
$var wire 1 H en_sa $end
$var wire 1 I done_raw $end
$var wire 32 J c33 [31:0] $end
$var wire 32 K c32 [31:0] $end
$var wire 32 L c31 [31:0] $end
$var wire 32 M c30 [31:0] $end
$var wire 32 N c23 [31:0] $end
$var wire 32 O c22 [31:0] $end
$var wire 32 P c21 [31:0] $end
$var wire 32 Q c20 [31:0] $end
$var wire 32 R c13 [31:0] $end
$var wire 32 S c12 [31:0] $end
$var wire 32 T c11 [31:0] $end
$var wire 32 U c10 [31:0] $end
$var wire 32 V c03 [31:0] $end
$var wire 32 W c02 [31:0] $end
$var wire 32 X c01 [31:0] $end
$var wire 32 Y c00 [31:0] $end
$var wire 32 Z active_feed_cycles [31:0] $end
$var parameter 32 [ FIFO_DEPTH $end
$var parameter 1 \ MSB_FIRST $end
$var reg 8 ] a0 [7:0] $end
$var reg 8 ^ a1 [7:0] $end
$var reg 8 _ a2 [7:0] $end
$var reg 8 ` a3 [7:0] $end
$var reg 8 a b0 [7:0] $end
$var reg 8 b b1 [7:0] $end
$var reg 8 c b2 [7:0] $end
$var reg 8 d b3 [7:0] $end
$scope module dut $end
$var wire 8 e a0 [7:0] $end
$var wire 8 f a1 [7:0] $end
$var wire 8 g a2 [7:0] $end
$var wire 8 h a3 [7:0] $end
$var wire 8 i b0 [7:0] $end
$var wire 8 j b1 [7:0] $end
$var wire 8 k b2 [7:0] $end
$var wire 8 l b3 [7:0] $end
$var wire 1 4 clk $end
$var wire 1 9 reset $end
$var wire 1 H en $end
$var wire 32 m c33 [31:0] $end
$var wire 32 n c32 [31:0] $end
$var wire 32 o c31 [31:0] $end
$var wire 32 p c30 [31:0] $end
$var wire 32 q c23 [31:0] $end
$var wire 32 r c22 [31:0] $end
$var wire 32 s c21 [31:0] $end
$var wire 32 t c20 [31:0] $end
$var wire 32 u c13 [31:0] $end
$var wire 32 v c12 [31:0] $end
$var wire 32 w c11 [31:0] $end
$var wire 32 x c10 [31:0] $end
$var wire 32 y c03 [31:0] $end
$var wire 32 z c02 [31:0] $end
$var wire 32 { c01 [31:0] $end
$var wire 32 | c00 [31:0] $end
$var parameter 32 } ACC_W $end
$scope module pe00 $end
$var wire 8 ~ a_in [7:0] $end
$var wire 32 !" acc_out [31:0] $end
$var wire 8 "" b_in [7:0] $end
$var wire 1 4 clk $end
$var wire 1 9 reset $end
$var wire 16 #" product [15:0] $end
$var wire 1 H en $end
$var parameter 32 $" ACC_W $end
$var reg 8 %" a_out [7:0] $end
$var reg 32 &" acc_reg [31:0] $end
$var reg 8 '" b_out [7:0] $end
$upscope $end
$scope module pe01 $end
$var wire 8 (" a_in [7:0] $end
$var wire 32 )" acc_out [31:0] $end
$var wire 8 *" b_in [7:0] $end
$var wire 1 4 clk $end
$var wire 1 9 reset $end
$var wire 16 +" product [15:0] $end
$var wire 1 H en $end
$var parameter 32 ," ACC_W $end
$var reg 8 -" a_out [7:0] $end
$var reg 32 ." acc_reg [31:0] $end
$var reg 8 /" b_out [7:0] $end
$upscope $end
$scope module pe02 $end
$var wire 8 0" a_in [7:0] $end
$var wire 32 1" acc_out [31:0] $end
$var wire 8 2" b_in [7:0] $end
$var wire 1 4 clk $end
$var wire 1 9 reset $end
$var wire 16 3" product [15:0] $end
$var wire 1 H en $end
$var parameter 32 4" ACC_W $end
$var reg 8 5" a_out [7:0] $end
$var reg 32 6" acc_reg [31:0] $end
$var reg 8 7" b_out [7:0] $end
$upscope $end
$scope module pe03 $end
$var wire 8 8" a_in [7:0] $end
$var wire 32 9" acc_out [31:0] $end
$var wire 8 :" b_in [7:0] $end
$var wire 1 4 clk $end
$var wire 1 9 reset $end
$var wire 16 ;" product [15:0] $end
$var wire 1 H en $end
$var parameter 32 <" ACC_W $end
$var reg 8 =" a_out [7:0] $end
$var reg 32 >" acc_reg [31:0] $end
$var reg 8 ?" b_out [7:0] $end
$upscope $end
$scope module pe10 $end
$var wire 8 @" a_in [7:0] $end
$var wire 32 A" acc_out [31:0] $end
$var wire 8 B" b_in [7:0] $end
$var wire 1 4 clk $end
$var wire 1 9 reset $end
$var wire 16 C" product [15:0] $end
$var wire 1 H en $end
$var parameter 32 D" ACC_W $end
$var reg 8 E" a_out [7:0] $end
$var reg 32 F" acc_reg [31:0] $end
$var reg 8 G" b_out [7:0] $end
$upscope $end
$scope module pe11 $end
$var wire 8 H" a_in [7:0] $end
$var wire 32 I" acc_out [31:0] $end
$var wire 8 J" b_in [7:0] $end
$var wire 1 4 clk $end
$var wire 1 9 reset $end
$var wire 16 K" product [15:0] $end
$var wire 1 H en $end
$var parameter 32 L" ACC_W $end
$var reg 8 M" a_out [7:0] $end
$var reg 32 N" acc_reg [31:0] $end
$var reg 8 O" b_out [7:0] $end
$upscope $end
$scope module pe12 $end
$var wire 8 P" a_in [7:0] $end
$var wire 32 Q" acc_out [31:0] $end
$var wire 8 R" b_in [7:0] $end
$var wire 1 4 clk $end
$var wire 1 9 reset $end
$var wire 16 S" product [15:0] $end
$var wire 1 H en $end
$var parameter 32 T" ACC_W $end
$var reg 8 U" a_out [7:0] $end
$var reg 32 V" acc_reg [31:0] $end
$var reg 8 W" b_out [7:0] $end
$upscope $end
$scope module pe13 $end
$var wire 8 X" a_in [7:0] $end
$var wire 32 Y" acc_out [31:0] $end
$var wire 8 Z" b_in [7:0] $end
$var wire 1 4 clk $end
$var wire 1 9 reset $end
$var wire 16 [" product [15:0] $end
$var wire 1 H en $end
$var parameter 32 \" ACC_W $end
$var reg 8 ]" a_out [7:0] $end
$var reg 32 ^" acc_reg [31:0] $end
$var reg 8 _" b_out [7:0] $end
$upscope $end
$scope module pe20 $end
$var wire 8 `" a_in [7:0] $end
$var wire 32 a" acc_out [31:0] $end
$var wire 8 b" b_in [7:0] $end
$var wire 1 4 clk $end
$var wire 1 9 reset $end
$var wire 16 c" product [15:0] $end
$var wire 1 H en $end
$var parameter 32 d" ACC_W $end
$var reg 8 e" a_out [7:0] $end
$var reg 32 f" acc_reg [31:0] $end
$var reg 8 g" b_out [7:0] $end
$upscope $end
$scope module pe21 $end
$var wire 8 h" a_in [7:0] $end
$var wire 32 i" acc_out [31:0] $end
$var wire 8 j" b_in [7:0] $end
$var wire 1 4 clk $end
$var wire 1 9 reset $end
$var wire 16 k" product [15:0] $end
$var wire 1 H en $end
$var parameter 32 l" ACC_W $end
$var reg 8 m" a_out [7:0] $end
$var reg 32 n" acc_reg [31:0] $end
$var reg 8 o" b_out [7:0] $end
$upscope $end
$scope module pe22 $end
$var wire 8 p" a_in [7:0] $end
$var wire 32 q" acc_out [31:0] $end
$var wire 8 r" b_in [7:0] $end
$var wire 1 4 clk $end
$var wire 1 9 reset $end
$var wire 16 s" product [15:0] $end
$var wire 1 H en $end
$var parameter 32 t" ACC_W $end
$var reg 8 u" a_out [7:0] $end
$var reg 32 v" acc_reg [31:0] $end
$var reg 8 w" b_out [7:0] $end
$upscope $end
$scope module pe23 $end
$var wire 8 x" a_in [7:0] $end
$var wire 32 y" acc_out [31:0] $end
$var wire 8 z" b_in [7:0] $end
$var wire 1 4 clk $end
$var wire 1 9 reset $end
$var wire 16 {" product [15:0] $end
$var wire 1 H en $end
$var parameter 32 |" ACC_W $end
$var reg 8 }" a_out [7:0] $end
$var reg 32 ~" acc_reg [31:0] $end
$var reg 8 !# b_out [7:0] $end
$upscope $end
$scope module pe30 $end
$var wire 8 "# a_in [7:0] $end
$var wire 32 ## acc_out [31:0] $end
$var wire 8 $# b_in [7:0] $end
$var wire 1 4 clk $end
$var wire 1 9 reset $end
$var wire 16 %# product [15:0] $end
$var wire 1 H en $end
$var parameter 32 &# ACC_W $end
$var reg 8 '# a_out [7:0] $end
$var reg 32 (# acc_reg [31:0] $end
$var reg 8 )# b_out [7:0] $end
$upscope $end
$scope module pe31 $end
$var wire 8 *# a_in [7:0] $end
$var wire 32 +# acc_out [31:0] $end
$var wire 8 ,# b_in [7:0] $end
$var wire 1 4 clk $end
$var wire 1 9 reset $end
$var wire 16 -# product [15:0] $end
$var wire 1 H en $end
$var parameter 32 .# ACC_W $end
$var reg 8 /# a_out [7:0] $end
$var reg 32 0# acc_reg [31:0] $end
$var reg 8 1# b_out [7:0] $end
$upscope $end
$scope module pe32 $end
$var wire 8 2# a_in [7:0] $end
$var wire 32 3# acc_out [31:0] $end
$var wire 8 4# b_in [7:0] $end
$var wire 1 4 clk $end
$var wire 1 9 reset $end
$var wire 16 5# product [15:0] $end
$var wire 1 H en $end
$var parameter 32 6# ACC_W $end
$var reg 8 7# a_out [7:0] $end
$var reg 32 8# acc_reg [31:0] $end
$var reg 8 9# b_out [7:0] $end
$upscope $end
$scope module pe33 $end
$var wire 8 :# a_in [7:0] $end
$var wire 32 ;# acc_out [31:0] $end
$var wire 8 <# b_in [7:0] $end
$var wire 1 4 clk $end
$var wire 1 9 reset $end
$var wire 16 =# product [15:0] $end
$var wire 1 H en $end
$var parameter 32 ># ACC_W $end
$var reg 8 ?# a_out [7:0] $end
$var reg 32 @# acc_reg [31:0] $end
$var reg 8 A# b_out [7:0] $end
$upscope $end
$upscope $end
$scope module u_ctrl $end
$var wire 1 4 clk $end
$var wire 1 9 reset $end
$var wire 1 : start $end
$var wire 1 D fifo_b_empty $end
$var wire 1 G fifo_a_empty $end
$var parameter 32 B# FEED_CYCLES $end
$var parameter 32 C# FLUSH_CYCLES $end
$var parameter 32 D# S_DONE $end
$var parameter 32 E# S_FEED $end
$var parameter 32 F# S_FLUSH $end
$var parameter 32 G# S_IDLE $end
$var reg 32 H# active_feed_cycles [31:0] $end
$var reg 1 I done $end
$var reg 1 H en_sa $end
$var reg 1 A pop_a $end
$var reg 1 @ pop_b $end
$var reg 32 I# stall_feed_cycles [31:0] $end
$var reg 32 J# total_feed_cycles [31:0] $end
$var integer 32 K# feed_cnt [31:0] $end
$var integer 32 L# flush_cnt [31:0] $end
$var integer 32 M# state [31:0] $end
$upscope $end
$scope module u_fifo_a $end
$var wire 1 4 clk $end
$var wire 1 N# do_rd $end
$var wire 1 O# do_wr $end
$var wire 32 P# rd_data [31:0] $end
$var wire 1 A rd_en $end
$var wire 1 9 reset $end
$var wire 32 Q# wr_data [31:0] $end
$var wire 1 R# wr_en $end
$var wire 1 F full $end
$var wire 1 G empty $end
$var parameter 32 S# AW $end
$var parameter 32 T# DEPTH $end
$var parameter 32 U# WIDTH $end
$var reg 6 V# count [5:0] $end
$var reg 5 W# rptr [4:0] $end
$var reg 5 X# wptr [4:0] $end
$upscope $end
$scope module u_fifo_b $end
$var wire 1 4 clk $end
$var wire 1 Y# do_rd $end
$var wire 1 Z# do_wr $end
$var wire 32 [# rd_data [31:0] $end
$var wire 1 @ rd_en $end
$var wire 1 9 reset $end
$var wire 32 \# wr_data [31:0] $end
$var wire 1 ]# wr_en $end
$var wire 1 C full $end
$var wire 1 D empty $end
$var parameter 32 ^# AW $end
$var parameter 32 _# DEPTH $end
$var parameter 32 `# WIDTH $end
$var reg 6 a# count [5:0] $end
$var reg 5 b# rptr [4:0] $end
$var reg 5 c# wptr [4:0] $end
$upscope $end
$upscope $end
$scope task check_C $end
$var integer 32 d# exp0 [31:0] $end
$upscope $end
$scope task push_word $end
$upscope $end
$upscope $end
$enddefinitions $end
$comment Show the parameter values. $end
$dumpall
b100000 `#
b100000 _#
b101 ^#
b100000 U#
b100000 T#
b101 S#
b0 G#
b10 F#
b1 E#
b11 D#
b100 C#
b1100 B#
b100000 >#
b100000 6#
b100000 .#
b100000 &#
b100000 |"
b100000 t"
b100000 l"
b100000 d"
b100000 \"
b100000 T"
b100000 L"
b100000 D"
b100000 <"
b100000 4"
b100000 ,"
b100000 $"
b100000 }
1\
b100000 [
$end
#0
$dumpvars
bx d#
bx c#
bx b#
bx a#
0]#
b0 \#
bx [#
0Z#
xY#
bx X#
bx W#
bx V#
0R#
b0 Q#
bx P#
0O#
xN#
bx M#
bx L#
bx K#
bx J#
bx I#
bx H#
bx A#
bx @#
bx ?#
bx =#
bx <#
bx ;#
bx :#
bx 9#
bx 8#
bx 7#
bx 5#
bx 4#
bx 3#
bx 2#
bx 1#
bx 0#
bx /#
bx -#
bx ,#
bx +#
bx *#
bx )#
bx (#
bx '#
bx %#
bx $#
bx ##
bx "#
bx !#
bx ~"
bx }"
bx {"
bx z"
bx y"
bx x"
bx w"
bx v"
bx u"
bx s"
bx r"
bx q"
bx p"
bx o"
bx n"
bx m"
bx k"
bx j"
bx i"
bx h"
bx g"
bx f"
bx e"
bx c"
bx b"
bx a"
bx `"
bx _"
bx ^"
bx ]"
bx ["
bx Z"
bx Y"
bx X"
bx W"
bx V"
bx U"
bx S"
bx R"
bx Q"
bx P"
bx O"
bx N"
bx M"
bx K"
bx J"
bx I"
bx H"
bx G"
bx F"
bx E"
bx C"
bx B"
bx A"
bx @"
bx ?"
bx >"
bx ="
bx ;"
bx :"
bx 9"
bx 8"
bx 7"
bx 6"
bx 5"
bx 3"
bx 2"
bx 1"
bx 0"
bx /"
bx ."
bx -"
bx +"
bx *"
bx )"
bx ("
bx '"
bx &"
bx %"
bx #"
bx ""
bx !"
bx ~
bx |
bx {
bx z
bx y
bx x
bx w
bx v
bx u
bx t
bx s
bx r
bx q
bx p
bx o
bx n
bx m
bx l
bx k
bx j
bx i
bx h
bx g
bx f
bx e
bx d
bx c
bx b
bx a
bx `
bx _
bx ^
bx ]
bx Z
bx Y
bx X
bx W
bx V
bx U
bx T
bx S
bx R
bx Q
bx P
bx O
bx N
bx M
bx L
bx K
bx J
xI
xH
xG
xF
bx E
xD
xC
bx B
xA
x@
bx ?
bx >
b0 =
b0 <
bx ;
0:
19
08
b0 7
06
b0 5
04
bx 3
bx 2
bx 1
bx 0
bx /
bx .
bx -
bx ,
bx +
bx *
bx )
bx (
bx '
bx &
bx %
bx $
x#
x"
x!
$end
#5000
b0 ;"
b0 :"
b0 d
b0 l
b0 3"
b0 2"
b0 c
b0 k
b0 +"
b0 *"
b0 b
b0 j
b0 #"
b0 ""
b0 a
b0 i
b0 %#
b0 "#
b0 `
b0 h
b0 c"
b0 `"
b0 _
b0 g
b0 C"
b0 @"
b0 ^
b0 f
b0 ~
b0 ]
b0 e
0N#
0Y#
0#
0I
0H
0@
0A
1"
0F
1G
b0 V#
b0 W#
b0 X#
1!
0C
1D
b0 a#
b0 b#
b0 c#
b0 ?
b0 I#
b0 Z
b0 H#
b0 >
b0 J#
b0 L#
b0 K#
b0 M#
b0 B"
b0 '"
b0 ("
b0 %"
b0 3
b0 Y
b0 |
b0 !"
b0 &"
b0 K"
b0 J"
b0 /"
b0 0"
b0 -"
b0 2
b0 X
b0 {
b0 )"
b0 ."
b0 S"
b0 R"
b0 7"
b0 8"
b0 5"
b0 1
b0 W
b0 z
b0 1"
b0 6"
b0 ["
b0 Z"
b0 ?"
b0 ="
b0 0
b0 V
b0 y
b0 9"
b0 >"
b0 b"
b0 G"
b0 H"
b0 E"
b0 /
b0 U
b0 x
b0 A"
b0 F"
b0 k"
b0 j"
b0 O"
b0 P"
b0 M"
b0 .
b0 T
b0 w
b0 I"
b0 N"
b0 s"
b0 r"
b0 W"
b0 X"
b0 U"
b0 -
b0 S
b0 v
b0 Q"
b0 V"
b0 {"
b0 z"
b0 _"
b0 ]"
b0 ,
b0 R
b0 u
b0 Y"
b0 ^"
b0 $#
b0 g"
b0 h"
b0 e"
b0 +
b0 Q
b0 t
b0 a"
b0 f"
b0 -#
b0 ,#
b0 o"
b0 p"
b0 m"
b0 *
b0 P
b0 s
b0 i"
b0 n"
b0 5#
b0 4#
b0 w"
b0 x"
b0 u"
b0 )
b0 O
b0 r
b0 q"
b0 v"
b0 =#
b0 <#
b0 !#
b0 }"
b0 (
b0 N
b0 q
b0 y"
b0 ~"
b0 )#
b0 *#
b0 '#
b0 '
b0 M
b0 p
b0 ##
b0 (#
b0 1#
b0 2#
b0 /#
b0 &
b0 L
b0 o
b0 +#
b0 0#
b0 9#
b0 :#
b0 7#
b0 %
b0 K
b0 n
b0 3#
b0 8#
b0 A#
b0 ?#
b0 $
b0 J
b0 m
b0 ;#
b0 @#
14
#10000
04
#15000
14
#20000
04
#25000
1O#
1R#
16
b100 5
b100 <
b100 Q#
b0 ;
09
14
#30000
04
#35000
1Z#
0O#
1]#
0R#
0G
b1 V#
b1 X#
b100 E
b100 P#
18
b0 5
b0 <
b0 Q#
06
14
#40000
04
#45000
0Z#
0]#
08
0D
b1 a#
b1 c#
b0 B
b0 [#
14
#50000
04
#55000
1O#
1R#
16
b1111101100000111 5
b1111101100000111 <
b1111101100000111 Q#
b1 ;
14
#60000
04
#65000
1Z#
0O#
1]#
0R#
b10 V#
b10 X#
18
b10011111110 7
b10011111110 =
b10011111110 \#
b0 5
b0 <
b0 Q#
06
14
#70000
04
#75000
0Z#
0]#
b0 7
b0 =
b0 \#
08
b10 a#
b10 c#
14
#80000
04
#85000
1O#
1R#
16
b10000001111111101 5
b10000001111111101 <
b10000001111111101 Q#
b10 ;
14
#90000
04
#95000
1Z#
0O#
1]#
0R#
b11 V#
b11 X#
18
b101111111100000000 7
b101111111100000000 =
b101111111100000000 \#
b0 5
b0 <
b0 Q#
06
14
#100000
04
#105000
0Z#
0]#
b0 7
b0 =
b0 \#
08
b11 a#
b11 c#
14
#110000
04
#115000
1O#
1R#
16
b11111100111110111111101111111000 5
b11111100111110111111101111111000 <
b11111100111110111111101111111000 Q#
b11 ;
14
#120000
04
#125000
1Z#
0O#
1]#
0R#
b100 V#
b100 X#
18
b11111001111111111111100100000101 7
b11111001111111111111100100000101 =
b11111001111111111111100100000101 \#
b0 5
b0 <
b0 Q#
06
14
#130000
04
#135000
0Z#
0]#
b0 7
b0 =
b0 \#
08
b100 a#
b100 c#
14
#140000
04
#145000
1O#
1R#
16
b11111111111111011111111100000000 5
b11111111111111011111111100000000 <
b11111111111111011111111100000000 Q#
b100 ;
14
#150000
04
#155000
1Z#
0O#
1]#
0R#
b101 V#
b101 X#
18
b110111111010000000000000000 7
b110111111010000000000000000 =
b110111111010000000000000000 \#
b0 5
b0 <
b0 Q#
06
14
#160000
04
#165000
0Z#
0]#
b0 7
b0 =
b0 \#
08
b101 a#
b101 c#
14
#170000
04
#175000
1O#
1R#
16
b11111110111110100000000000000000 5
b11111110111110100000000000000000 <
b11111110111110100000000000000000 Q#
b101 ;
14
#180000
04
#185000
1Z#
0O#
1]#
0R#
b110 V#
b110 X#
18
b1000000010000000000000000 7
b1000000010000000000000000 =
b1000000010000000000000000 \#
b0 5
b0 <
b0 Q#
06
14
#190000
04
#195000
0Z#
0]#
b0 7
b0 =
b0 \#
08
b110 a#
b110 c#
14
#200000
04
#205000
1O#
1R#
16
b110 ;
14
#210000
04
#215000
1Z#
0O#
1]#
0R#
b111 V#
b111 X#
18
b11111100000000000000000000000000 7
b11111100000000000000000000000000 =
b11111100000000000000000000000000 \#
06
14
#220000
04
#225000
0Z#
0]#
b0 7
b0 =
b0 \#
08
b111 a#
b111 c#
14
#230000
04
#235000
1O#
1R#
16
b111 ;
14
#240000
04
#245000
1Z#
0O#
1]#
0R#
b1000 V#
b1000 X#
18
06
14
#250000
04
#255000
0Z#
0]#
08
b1000 a#
b1000 c#
14
#260000
04
#265000
1O#
1R#
16
b1000 ;
14
#270000
04
#275000
1Z#
0O#
1]#
0R#
b1001 V#
b1001 X#
18
06
14
#280000
04
#285000
0Z#
0]#
08
b1001 a#
b1001 c#
14
#290000
04
#295000
1O#
1R#
16
b1001 ;
14
#300000
04
#305000
1Z#
0O#
1]#
0R#
b1010 V#
b1010 X#
18
06
14
#310000
04
#315000
0Z#
0]#
08
b1010 a#
b1010 c#
14
#320000
04
#325000
1O#
1R#
16
b1010 ;
14
#330000
04
#335000
1Z#
0O#
1]#
0R#
b1011 V#
b1011 X#
18
06
14
#340000
04
#345000
0Z#
0]#
08
b1011 a#
b1011 c#
14
#350000
04
#355000
1O#
1R#
16
b1011 ;
14
#360000
04
#365000
1Z#
0O#
1]#
0R#
b1100 V#
b1100 X#
18
06
14
#370000
04
#375000
0Z#
0]#
08
b1100 a#
b1100 c#
14
#380000
04
#385000
b1100 ;
14
#390000
04
#395000
1Y#
1N#
b100 ~
b100 ]
b100 e
1H
1@
1A
b1 M#
1:
14
#400000
04
#405000
b10000 +"
b100 *"
b100 b
b100 j
b1111111111110010 #"
b11111110 ""
b11111110 a
b11111110 i
b11111011 @"
b11111011 ^
b11111011 f
b111 ~
b111 ]
b111 e
b1011 V#
b1111101100000111 E
b1111101100000111 P#
b1 W#
b1011 a#
b10011111110 B
b10011111110 [#
b1 b#
b1 K#
b1 Z
b1 H#
b1 >
b1 J#
b100 ("
b100 %"
0:
14
#410000
04
#415000
b1000 3"
b10 2"
b10 c
b10 k
b1 `"
b1 _
b1 g
b11111111 *"
b11111111 b
b11111111 j
b0 ""
b0 a
b0 i
b11 @"
b11 ^
b11 f
b0 #"
b11111101 ~
b11111101 ]
b11111101 e
b1111111111101100 K"
b11111011 H"
b11111011 E"
b10000 2
b10000 X
b10000 {
b10000 )"
b10000 ."
b100 J"
b100 /"
b100 0"
b100 -"
b11111111111111111111111111110010 3
b11111111111111111111111111110010 Y
b11111111111111111111111111110010 |
b11111111111111111111111111110010 !"
b11111111111111111111111111110010 &"
b1111111111111010 C"
b11111110 B"
b11111110 '"
b1111111111111001 +"
b111 ("
b111 %"
b10 K#
b10 Z
b10 H#
b10 >
b10 J#
b1010 a#
b101111111100000000 B
b101111111100000000 [#
b10 b#
b1010 V#
b10000001111111101 E
b10000001111111101 P#
b10 W#
14
#420000
04
#425000
b1111111111100100 ;"
b11111001 :"
b11111001 d
b11111001 l
b1111111111011000 #"
b101 ""
b101 a
b101 i
b11111100 "#
b11111100 `
b11111100 h
b11111111 2"
b11111111 c
b11111111 k
b11111001 *"
b11111001 b
b11111001 j
b11111011 `"
b11111011 _
b11111011 g
b11111011 @"
b11111011 ^
b11111011 f
b11111000 ~
b11111000 ]
b11111000 e
b1001 V#
b11111100111110111111101111111000 E
b11111100111110111111101111111000 P#
b11 W#
b1001 a#
b11111001111111111111100100000101 B
b11111001111111111111100100000101 [#
b11 b#
b11 K#
b11 Z
b11 H#
b11 >
b11 J#
b0 C"
b0 B"
b0 '"
b10101 +"
b11111101 ("
b11111101 %"
b1001 2
b1001 X
b1001 {
b1001 )"
b1001 ."
b11111111 J"
b11111111 /"
b1111111111111001 3"
b111 0"
b111 -"
b1000 1
b1000 W
b1000 z
b1000 1"
b1000 6"
b1111111111110110 S"
b10 R"
b10 7"
b100 8"
b100 5"
b11111111111111111111111111111010 /
b11111111111111111111111111111010 U
b11111111111111111111111111111010 x
b11111111111111111111111111111010 A"
b11111111111111111111111111111010 F"
b1010 c"
b11111110 b"
b11111110 G"
b1111111111111101 K"
b11 H"
b11 E"
b11111111111111111111111111101100 .
b11111111111111111111111111101100 T
b11111111111111111111111111101100 w
b11111111111111111111111111101100 I"
b11111111111111111111111111101100 N"
b100 k"
b100 j"
b100 O"
b11111011 P"
b11111011 M"
b1 h"
b1 e"
14
#430000
04
#435000
b110 :"
b110 d
b110 l
b11111101 2"
b11111101 c
b11111101 k
b0 *"
b0 b
b0 j
b0 ""
b0 a
b0 i
b11111111 "#
b11111111 `
b11111111 h
b11111101 `"
b11111101 _
b11111101 g
b11111111 @"
b11111111 ^
b11111111 f
b0 #"
b0 ~
b0 ]
b0 e
b1111111111110000 -#
b11111100 *#
b11111100 '#
b100 *
b100 P
b100 s
b100 i"
b100 n"
b100 ,#
b100 o"
b10 s"
b1 p"
b1 m"
b1010 +
b1010 Q
b1010 t
b1010 a"
b1010 f"
b10 %#
b11111110 $#
b11111110 g"
b11111011 h"
b11111011 e"
b11111111111111111111111111110110 -
b11111111111111111111111111110110 S
b11111111111111111111111111110110 v
b11111111111111111111111111110110 Q"
b11111111111111111111111111110110 V"
b10 r"
b10 W"
b100011 ["
b11111011 X"
b11111011 U"
b11111111111111111111111111101001 .
b11111111111111111111111111101001 T
b11111111111111111111111111101001 w
b11111111111111111111111111101001 I"
b11111111111111111111111111101001 N"
b101 k"
b11111111 j"
b11111111 O"
b11 P"
b11 M"
b0 c"
b0 b"
b0 G"
b11111011 H"
b11111011 E"
b11111111111111111111111111100100 0
b11111111111111111111111111100100 V
b11111111111111111111111111100100 y
b11111111111111111111111111100100 9"
b11111111111111111111111111100100 >"
b11111001 Z"
b11111001 ?"
b100 ="
b1 1
b1 W
b1 z
b1 1"
b1 6"
b1111111111111101 S"
b11111111 R"
b11111111 7"
b101010 ;"
b111 8"
b111 5"
b11110 2
b11110 X
b11110 {
b11110 )"
b11110 ."
b100011 K"
b11111001 J"
b11111001 /"
b1001 3"
b11111101 0"
b11111101 -"
b11111111111111111111111111001010 3
b11111111111111111111111111001010 Y
b11111111111111111111111111001010 |
b11111111111111111111111111001010 !"
b11111111111111111111111111001010 &"
b1111111111111011 C"
b101 B"
b101 '"
b0 +"
b11111000 ("
b11111000 %"
b100 K#
b100 Z
b100 H#
b100 >
b100 J#
b1000 a#
b110111111010000000000000000 B
b110111111010000000000000000 [#
b100 b#
b1000 V#
b11111111111111011111111100000000 E
b11111111111111011111111100000000 P#
b100 W#
14
#440000
04
#445000
b1 :"
b1 d
b1 l
b1 2"
b1 c
b1 k
b11111110 "#
b11111110 `
b11111110 h
b11111010 `"
b11111010 _
b11111010 g
b0 @"
b0 ^
b0 f
b111 V#
b11111110111110100000000000000000 E
b11111110111110100000000000000000 P#
b101 W#
b111 a#
b1000000010000000000000000 B
b1000000010000000000000000 [#
b101 b#
b101 K#
b101 Z
b101 H#
b101 >
b101 J#
b0 C"
b0 B"
b0 '"
b0 ("
b0 %"
b0 J"
b0 /"
b1111111111111000 3"
b11111000 0"
b11111000 -"
b1010 1
b1010 W
b1010 z
b1010 1"
b1010 6"
b11111101 R"
b11111101 7"
b1111111111111101 ;"
b11111101 8"
b11111101 5"
b1110 0
b1110 V
b1110 y
b1110 9"
b1110 >"
b110 Z"
b110 ?"
b111 ="
b11111111111111111111111111110101 /
b11111111111111111111111111110101 U
b11111111111111111111111111110101 x
b11111111111111111111111111110101 A"
b11111111111111111111111111110101 F"
b1111111111100010 c"
b101 b"
b101 G"
b0 K"
b11111111 H"
b11111111 E"
b1100 .
b1100 T
b1100 w
b1100 I"
b1100 N"
b11111001 j"
b11111001 O"
b1111 S"
b11111011 P"
b11111011 M"
b11111111111111111111111111110011 -
b11111111111111111111111111110011 S
b11111111111111111111111111110011 v
b11111111111111111111111111110011 Q"
b11111111111111111111111111110011 V"
b11111111 r"
b11111111 W"
b10010 ["
b11 X"
b11 U"
b100011 ,
b100011 R
b100011 u
b100011 Y"
b100011 ^"
b1111111111111001 {"
b11111001 z"
b11111001 _"
b11111011 ]"
b0 %#
b0 $#
b0 g"
b10101 k"
b11111101 h"
b11111101 e"
b1001 *
b1001 P
b1001 s
b1001 i"
b1001 n"
b11111111 ,#
b11111111 o"
b101 s"
b11111011 p"
b11111011 m"
b10 )
b10 O
b10 r
b10 q"
b10 v"
b1111111111111000 5#
b10 4#
b10 w"
b1 x"
b1 u"
b10 '
b10 M
b10 p
b10 ##
b10 (#
b11111110 )#
b1 -#
b11111111 *#
b11111111 '#
b11111111111111111111111111110000 &
b11111111111111111111111111110000 L
b11111111111111111111111111110000 o
b11111111111111111111111111110000 +#
b11111111111111111111111111110000 0#
b100 1#
b11111100 2#
b11111100 /#
14
#450000
04
